0 0.1212 0.3844 0.156 0.0984
0 0.16440000000000002 0.5828 0.3256 0.324
0 0.6612 0.7128 0.6776 0.504
0 0.8260000000000001 0.4228 0.34 0.1656
0 0.5656 0.35400000000000004 0.1888 0.09680000000000001
0 0.32 0.3392 0.32 0.0736
