0 0.9511627906976744 0.5177083333333333 0.09767441860465116 0.5895833333333333
0 0.8891472868217054 0.37604166666666666 0.18449612403100774 0.5229166666666667
0 0.775968992248062 0.6416666666666666 0.3116279069767442 0.6916666666666667
0 0.6255813953488372 0.36666666666666664 0.19069767441860463 0.5041666666666667
0 0.5697674418604651 0.5385416666666667 0.13178294573643412 0.5979166666666667
0 0.3116279069767442 0.6760416666666667 0.30077519379844964 0.64375
