0 0.8038067349926794 0.6293888166449935 0.2518301610541728 0.6267880364109233
0 0.49194729136163984 0.5591677503250976 0.232796486090776 0.6163849154746424
0 0.23389458272327965 0.552665799739922 0.3169838945827233 0.7672301690507153
