2 0.6990000000000001 0.512 0.17 0.6506666666666666
2 0.317 0.6213333333333333 0.302 0.7573333333333333
2 0.432 0.488 0.212 0.6346666666666666
2 0.08 0.42266666666666663 0.112 0.35466666666666663
2 0.589 0.41466666666666663 0.114 0.41333333333333333
2 0.973 0.488 0.054 0.4533333333333333
