2 0.575075075075075 0.579 0.23723723723723725 0.506
2 0.3363363363363363 0.619 0.16216216216216217 0.262
2 0.8168168168168168 0.646 0.10810810810810811 0.252
2 0.9384384384384384 0.608 0.12312312312312312 0.316
