2 0.459 0.4444444444444444 0.122 0.27627627627627627
2 0.428 0.8738738738738738 0.064 0.12012012012012012
2 0.23600000000000002 0.9144144144144144 0.06 0.13513513513513514
2 0.753 0.7192192192192192 0.126 0.48348348348348347
2 0.664 0.8468468468468469 0.128 0.3003003003003003
