2 0.626 0.496996996996997 0.124 0.44744744744744747
2 0.726 0.6546546546546547 0.192 0.6186186186186187
2 0.439 0.551051051051051 0.13 0.5795795795795796
2 0.298 0.6411411411411412 0.192 0.5915915915915916
