2 0.23900000000000002 0.4099099099099099 0.082 0.3033033033033033
2 0.47400000000000003 0.49399399399399396 0.23600000000000002 0.6456456456456456
2 0.977 0.47297297297297297 0.046 0.24924924924924924
