1 0.8393617021276596 0.4276649746192893 0.3191489361702128 0.7411167512690354
1 0.49946808510638296 0.5368020304568527 0.3414893617021277 0.8857868020304568
1 0.1675531914893617 0.49682741116751267 0.32872340425531915 0.9403553299492385
