4 0.3125 0.7572916666666667 0.3375 0.46458333333333335
3 0.54140625 0.7645833333333333 0.1359375 0.19166666666666668
1 0.8171875 0.6645833333333333 0.246875 0.31666666666666665
0 0.24453125 0.8395833333333333 0.1984375 0.2916666666666667
