4 0.30859375 0.753125 0.3265625 0.47291666666666665
3 0.53515625 0.7645833333333333 0.1421875 0.19583333333333333
1 0.81640625 0.6572916666666667 0.2640625 0.3145833333333333
0 0.2484375 0.834375 0.203125 0.29791666666666666
